%YAML 1.1
%TAG !u! tag:unity3d.com,2011:
--- !u!1045 &1
EditorBuildSettings:
  m_ObjectHideFlags: 0
  serializedVersion: 2
  m_Scenes:
  - enabled: 1
    path: Assets/Scenes/Loading.unity
    guid: 2168010444393874d9434dd3d1750781
  - enabled: 1
    path: Assets/Scenes/Gameplay.unity
    guid: 9c63d4f1fb15c8743918ab30f7d52833
  m_configObjects: {}
